{
  "code": "'0'",
  "result": {
    "page": 1,
    "page_size": 10,
    "total_count": 85,
    "page_count": 9,
    "item_list": [
      {
        "order_id": "2959165",
        "bike_id": "0891",
        "user_id": "126",
        "user_name": "LiY",
        "phone": 18165165,
        "way": 20,
        "time": 40,
        "status": 1,
        "start_time": "2021-10.9",
        "end_time": "2021-10.10",
        "pay": 800,
        "the_pay": 700
      },
      {
        "order_id": "3959165",
        "bike_id": "3461",
        "user_id": "126",
        "user_name": "LiY",
        "phone": 151265165,
        "way": 10,
        "time": 50,
        "status": 2,
        "start_time": "2017-10.9",
        "end_time": "2008-10.10",
        "pay": 700,
        "the_pay": 500
      },
      {
        "order_id": "53959165",
        "bike_id": "791",
        "user_id": "126",
        "user_name": "LiY",
        "phone": 18165165,
        "way": 10,
        "time": 30,
        "status": 3,
        "start_time": "2021-10.9",
        "end_time": "2021-10.10",
        "pay": 200,
        "the_pay": 100
      },
      {
        "order_id": "6759165",
        "bike_id": "1411",
        "user_id": "126",
        "user_name": "LiY",
        "phone": 18165165,
        "way": 10,
        "time": 30,
        "status": 4,
        "start_time": "2021-10.9",
        "end_time": "2021-10.10",
        "pay": 200,
        "the_pay": 100
      },
      {
        "order_id": "3259165",
        "bike_id": "891",
        "user_id": "126",
        "user_name": "LiY",
        "phone": 18161234,
        "way": 20,
        "time": 50,
        "status": 4,
        "start_time": "2021-10.9",
        "end_time": "2021-10.10",
        "pay": 200,
        "the_pay": 100
      },
      {
        "order_id": "8959165",
        "bike_id": "5",
        "user_id": "126",
        "user_name": "LiY",
        "phone": 18161234,
        "way": 20,
        "time": 50,
        "status": 4,
        "start_time": "2021-10.9",
        "end_time": "2021-10.10",
        "pay": 200,
        "the_pay": 100
      }
    ]
  }
}